<?xml version="1.0" encoding="iso-8859-1"?>
<!-- Generator: Adobe Illustrator 19.0.0, SVG Export Plug-In . SVG Version: 6.00 Build 0)  -->
<svg xmlns="http://www.w3.org/2000/svg" xmlns:xlink="http://www.w3.org/1999/xlink" version="1.1" id="Capa_1" x="0px" y="0px" viewBox="0 0 512.001 512.001" style="enable-background:new 0 0 512.001 512.001;" xml:space="preserve" width="512px" height="512px">
<g>
	<g>
		<path d="M437.021,74.981c-48.352-48.352-112.638-74.98-181.018-74.98c-68.382,0-132.67,26.629-181.021,74.98    C26.629,123.332,0,187.62,0,256s26.629,132.669,74.981,181.021S187.621,512,256.003,512h100.414    c52.567,0,95.334-42.767,95.334-95.333v-74.871h45.25c8.284,0,15-6.716,15-15V256C512.001,187.62,485.373,123.332,437.021,74.981z     M436.751,311.796c-8.284,0-15,6.716-15,15v89.871c0,36.024-29.309,65.333-65.334,65.333H256.003C131.385,482,30,380.618,30,256    S131.385,30,256.003,30c124.616,0,225.998,101.384,225.998,226.002v55.794H436.751z" fill="#FFFFFF"/>
	</g>
</g>
<g>
	<g>
		<path d="M347.106,168.788l-68.163-68.16c-5.857-5.857-15.355-5.857-21.213,0L132.76,225.591    c-2.813,2.814-4.393,6.629-4.393,10.608l0.003,68.166c0,8.284,6.716,14.999,15,14.999h68.161c3.979,0,7.793-1.58,10.606-4.393    l124.969-124.97C352.964,184.143,352.964,174.646,347.106,168.788z M205.318,289.365h-46.949l-0.002-46.952l109.97-109.965    l46.95,46.948L205.318,289.365z" fill="#FFFFFF"/>
	</g>
</g>
<g>
</g>
<g>
</g>
<g>
</g>
<g>
</g>
<g>
</g>
<g>
</g>
<g>
</g>
<g>
</g>
<g>
</g>
<g>
</g>
<g>
</g>
<g>
</g>
<g>
</g>
<g>
</g>
<g>
</g>
</svg>
